ANOVA 1/2: Analyses of Variance in Mask-Related Sentiment Across Weeks, based on All Tweets of Coronavirus-Data-Masks Index
…
Results

results.tweet.count

1013038

## # A tibble: 1,013,038 x 4
##    sentiment  week date       datetime           
##        <dbl> <dbl> <date>     <dttm>             
##  1   -0.958     29 2020-07-12 2020-07-12 03:33:01
##  2    0.0772    28 2020-07-06 2020-07-06 23:22:02
##  3    0         24 2020-06-12 2020-06-12 21:43:42
##  4    0.727     27 2020-07-02 2020-07-02 19:17:20
##  5    0.081     14 2020-04-01 2020-04-01 08:15:05
##  6   -0.555     20 2020-05-10 2020-05-10 22:31:43
##  7    0.05      26 2020-06-25 2020-06-25 16:26:00
##  8    0.670     26 2020-06-23 2020-06-23 11:16:01
##  9   -0.296     31 2020-07-27 2020-07-27 13:59:55
## 10   -0.916     30 2020-07-22 2020-07-22 00:48:59
## #  with 1,013,028 more rows
…
Average sentiment as represented in these tweets can be observed to decrease over the timeline of the pandemic.

Data Cleaning/Organizing

We inspect the counts of tweets posted during each week, ordered least to greatest, to make sure all weeks are sufficiently represented:

## # A tibble: 28 x 2
##     week count
##    <dbl> <int>
##  1     4    15
##  2     8    16
##  3     7    21
##  4     6    23
##  5     5    61
##  6     9    87
##  7    10   142
##  8    11   231
##  9    12  7663
## 10    13 17760
## #  with 18 more rows
…
Clearly, the first few weeks of the year are pretty scant. We elect to filter out the weeks with tweet count < 100 to be safe (leaving CDC epidemiological weeks 11 - 31, roughly March 16 - July 27).

## # A tibble: 1,012,442 x 4
##    sentiment  week date       datetime           
##        <dbl> <dbl> <date>     <dttm>             
##  1   -0.958     29 2020-07-12 2020-07-12 03:33:01
##  2    0.0772    28 2020-07-06 2020-07-06 23:22:02
##  3    0         24 2020-06-12 2020-06-12 21:43:42
##  4    0.727     27 2020-07-02 2020-07-02 19:17:20
##  5    0.081     14 2020-04-01 2020-04-01 08:15:05
##  6   -0.555     20 2020-05-10 2020-05-10 22:31:43
##  7    0.05      26 2020-06-25 2020-06-25 16:26:00
##  8    0.670     26 2020-06-23 2020-06-23 11:16:01
##  9   -0.296     31 2020-07-27 2020-07-27 13:59:55
## 10   -0.916     30 2020-07-22 2020-07-22 00:48:59
## #  with 1,012,432 more rows
…
